{
    "version": "2.0",
    "phase": "105年07月,08月統一發票中獎號碼",
    "special": [
        "91909013"
    ],
    "grand": [
        "95976127"
    ],
    "first": [
        "54845444",
        "41876525",
        "86331065"
    ],
    "additional": [
        "352",
        "672",
        "731",
        "214"
    ]
}
